{
  "path": "/freezer-cooler/cooler/snw-286",
  "name": "SNW 286",
  "overview": [
    "Anti Rat Protection",
    "LED lighting",
    "High density shelves",
    "Double Tempered Glass",
    "Removable branding canopy & lower cover"
  ],
  "specifications": [
    {
      "label": "Model",
      "value": "SNW 286"
    },
    {
      "label": "Capacity",
      "value": "286 LT"
    },
    {
      "label": "Dimension",
      "value": "560x550x1782 (MM)"
    },
    {
      "label": "Footprint area",
      "value": "0.30m\u00B2"
    },
    {
      "label": "Weight",
      "value": "50Kg"
    },
    {
      "label": "Shelves Quantity",
      "value": "4 Shelves"
    },
    {
      "label": "Prod. Facing",
      "value": "7 Facings"
    },
    {
      "label": "Prod. Capacity",
      "value": "100 Bottles Pet 500 ML"
    },
    {
      "label": "Temperature range",
      "value": "2-6 \u2103"
    },
    {
      "label": "Power consumption",
      "value": "2.1 KW.H/24H"
    },
    {
      "label": "Power",
      "value": "220 Watt"
    },
    {
      "label": "Cost/24 hours",
      "value": "Rp 3.080"
    },
    {
      "label": "Refrigerant",
      "value": "HYDROCARBON R600a"
    }
  ],
  "images": [
    "../../assets/sanwoo-coolers/SNW_106_FRONT.png",
    "../../assets/sanwoo-coolers/SNW_106_FRONT.png",
    "../../assets/sanwoo-coolers/SNW_106_FRONT.png"
  ]
}
