{
  "path": "/home/multicooker/detail",
  "name": "Sanwoo 14-in-1 Multi Cooker & Air Fryer",
  "overview": [
    "Oil Free Fryer",
    "Adjustable time and temperature control",
    "Rapid Air Technology",
    "Saat menggunakan fungsi multi cooker, mohon gunakan penutup kaca saja (tidak perlu menggunakan penutup air fryer). Sedangkan fungsi air fryer akan otomatis menyala, ketika penutup air fryer dipasangkan.",
    "Sanwoo 14-in-1 Multi Cooker & Air Fryer KOR-3535MC dilengkapi dengan 14 cara memasak dalam 1 alat, antara lain:",
    "1. Rice",
    "2. Steam",
    "3. Stew",
    "4. Yoghurt ",
    "5. Sear / Saute ",
    "6. Slow Cooker ",
    "7. Keep Warm ",
    "8. Delay Start ",
    "9. Broil ",
    "10. Fries ",
    "11. Bake ",
    "12. Beef ",
    "13. Roast ",
    "14. Dehydrator"
  ],
  "specifications": [
    {
      "label": "Model",
      "value": "KOR 3535MC"
    },
    {
      "label": "Capacity",
      "value": "6 LT"
    },
    {
      "label": "Dimension",
      "value": "340x340x385 (MM)"
    },
    {
      "label": "Power",
      "value": "1250-1330 Watt (220-240V)"
    }
  ],
  "images": [
    "../../assets/sanwoo-coolers/SNW_106_FRONT.png",
    "../../assets/sanwoo-coolers/SNW_106_FRONT.png",
    "../../assets/sanwoo-coolers/SNW_106_FRONT.png"
  ]
}
