{
  "path": "/freezer-cooler/cooler/snw-160",
  "name": "SNW 160 Slim",
  "overview": [
    "Anti Rat Protection",
    "LED lighting",
    "High density shelves",
    "Double Tempered Glass"
  ],
  "specifications": [
    {
      "label": "Model",
      "value": "SNW 160 Slim"
    },
    {
      "label": "Capacity",
      "value": "160 LT"
    },
    {
      "label": "Dimension",
      "value": "390x490x1890 (MM)"
    },
    {
      "label": "Footprint area",
      "value": "0.19m\u00B2"
    },
    {
      "label": "Weight",
      "value": "75Kg"
    },
    {
      "label": "Shelves Quantity",
      "value": "4 Shelves"
    },
    {
      "label": "Prod. Facing",
      "value": "4 Facings"
    },
    {
      "label": "Prod. Capacity",
      "value": "80 Bottles"
    },
    {
      "label": "Temperature range",
      "value": "5-10 \u2103"
    },
    {
      "label": "Power consumption",
      "value": "1.8 KW.H/24H"
    },
    {
      "label": "Power",
      "value": "175 Watt"
    },
    {
      "label": "Cost/24 hours",
      "value": "Rp 2.640"
    },
    {
      "label": "Refrigerant",
      "value": "R134a"
    }
  ],
  "images": [
    "../../assets/sanwoo-coolers/SNW_106_FRONT.png",
    "../../assets/sanwoo-coolers/SNW_106_FRONT.png",
    "../../assets/sanwoo-coolers/SNW_106_FRONT.png"
  ]
}
