{
  "path": "/freezer-cooler/freezer/snw-300f",
  "name": "SNW 300F",
  "overview": [
    "Low Radiation Tempered Glass",
    "LED lighting",
    "Mechanical Thermostat",
    "White Color Steel Inner Tank",
    "Digital Thermo Display"
  ],
  "specifications": [
    {
      "label": "Model",
      "value": "SNW 300 F"
    },
    {
      "label": "Capacity",
      "value": "273 LT"
    },
    {
      "label": "Dimension",
      "value": "1014x694x825 (MM)"
    },
    {
      "label": "Footprint area",
      "value": "0.70m2"
    },
    {
      "label": "Weight",
      "value": "56Kg"
    },
    {
      "label": "Temperature range",
      "value": "-10 to -30 C"
    },
    {
      "label": "Power consumption",
      "value": "2.6 KW.H/24H"
    },
    {
      "label": "Power",
      "value": "253 Watt"
    },
    {
      "label": "Cost/24 hours",
      "value": "Rp 3.814"
    },
    {
      "label": "Refrigerant",
      "value": "HYDROCARBON R600a"
    }
  ],
  "images": [
    "../../assets/sanwoo-coolers/SNW_106_FRONT.png",
    "../../assets/sanwoo-coolers/SNW_106_FRONT.png",
    "../../assets/sanwoo-coolers/SNW_106_FRONT.png"
  ]
}
